<?xml version="1.0" encoding="UTF-8"?>
<svg width="24px" height="24px" viewBox="0 0 24 24" version="1.1" xmlns="http://www.w3.org/2000/svg" xmlns:xlink="http://www.w3.org/1999/xlink">
    <title>Artboard</title>
    <g id="Artboard" stroke="none" stroke-width="1" fill="none" fill-rule="evenodd">
        <path d="M24,20.5 C24,21.9035118 22.7268564,22.3194881 20.9200627,22.3658908 C19.1231993,22.4120385 16.7408284,22.3919808 14.6047052,22.372105 L14.9200627,22.3658908 C16.7268564,22.3194881 18,21.9035118 18,20.5 C18,17.1577166 16.7635981,14.6032366 14.8157153,12.9893326 C16.1665153,12.9219522 17.3994233,12.4050716 18.3690951,11.5862477 C21.6703818,12.8087444 24,15.912186 24,20.5 Z" id="Combined-Shape" fill="#075AFF"></path>
        <path d="M14.5002577,1 C17.8139662,1 20.5002577,3.6862915 20.5002577,7 C20.5002577,10.2076644 17.9831466,12.827426 14.8163948,12.9918143 C14.1818666,12.4641229 13.4723909,12.0383959 12.7056251,11.7176115 C14.1031713,10.6198617 15,8.91466364 15,7 C15,4.67755442 13.6804811,2.66329901 11.750243,1.66603359 C12.574,1.24035033 13.5090604,1 14.5002577,1 Z" id="Combined-Shape" fill-opacity="0.70" fill="#075AFF"></path>
        <path d="M12.7066332,11.7180333 C15.8281983,13.0244322 18,16.0703082 18,20.5 C18,21.9035118 16.7268564,22.3194881 14.9200627,22.3658908 C12.9333956,22.4169131 10.5105883,22.3870047 8.21660387,22.3658908 C6.24031372,22.347701 4.42846563,22.4094361 3.0136982,22.3658908 C1.17080624,22.3091683 0,22.0123664 0,20.5 C0,16.6075329 2.21779285,13.2618365 5.39231781,11.7940305 C6.39625234,12.551321 7.64572887,13 9,13 C10.355608,13 11.6062144,12.5504347 12.6108614,11.7922619 Z" id="Combined-Shape" fill-opacity="0.4" fill="#075AFF"></path>
        <circle id="Oval" fill-opacity="0.3" fill="#075AFF" cx="9" cy="7" r="6"></circle>
    </g>
</svg>